{
	"groupId" : "com.nogroup.municipality",
	"artifactId" : "manager",
	"version" : "1.0.0",
	"archetype" : "MULTI_MODULE",
	"dataTypes" : {
		"enumerated" : [
			{
				"name" : "DualPriority",
				"values" : [
					"HIGH",
					"LOW"
				]
			},{
				"name" : "TriplePriority",
				"values" : [
					"HIGH",
					"MEDUIM",
					"LOW"
				]
			}
		],"embedded" : [
			{
				"name" : "MultiLangName",
				"extendedType" : "",
				"implementedTypes" : [
					"Serializable"
				],"embeddedFields" : [
					{
						"name" : "ar",
						"dataType" : "String"
					},
					{
						"name" : "fr",
						"dataType" : "String"
					}
				]
			},
			{
				"name" : "PMultiLangName",
				"extendedType" : "MultiLangNameS",
				"implementedTypes" : [
				],"embeddedFields" : [
					{
						"name" : "phone",
						"dataType" : "String"
					}
				]
			}
		
		],"entities" : [
		
		]
	},
	"modules" : [
		{
			"artifact" : "ddd",
			"version" : "1.0.0",
			"archetype" : "GIS",
			"items" : [
				{
					"id" : "",
					"caption" : "ddd",
					"position" : "TOOLBOX"
				}
			],
			"views" : [
				{
					"id" : "",
					"caption" : "ddd"
				}
			]
		}
	]
}